^C:\USERS\ARNAS\DESKTOP\ROBOCATACTION\ROBOCATSERVER\SRC\ROBOCATSERVERPCH.CPP
C:\WINDOWS\GLOBALIZATION\SORTING\SORTDEFAULT.NLS
E:\VISUAL STUDIO AND UNITY TOOLS\VC\TOOLS\MSVC\14.11.25503\BIN\HOSTX86\X86\1033\CLUI.DLL
C:\WINDOWS\SYSTEM32\TZRES.DLL
C:\USERS\ARNAS\DESKTOP\ROBOCATACTION\ROBOCATSERVER\INC\ROBOCATSERVERPCH.H
C:\USERS\ARNAS\DESKTOP\ROBOCATACTION\ROBOCAT\INC\ROBOCATSHARED.H
C:\PROGRAM FILES (X86)\WINDOWS KITS\10\INCLUDE\10.0.16299.0\UM\WINDOWS.H
C:\PROGRAM FILES (X86)\WINDOWS KITS\10\INCLUDE\10.0.16299.0\SHARED\WINAPIFAMILY.H
C:\PROGRAM FILES (X86)\WINDOWS KITS\10\INCLUDE\10.0.16299.0\SHARED\WINPACKAGEFAMILY.H
C:\PROGRAM FILES (X86)\WINDOWS KITS\10\INCLUDE\10.0.16299.0\SHARED\SDKDDKVER.H
E:\VISUAL STUDIO AND UNITY TOOLS\VC\TOOLS\MSVC\14.11.25503\INCLUDE\EXCPT.H
E:\VISUAL STUDIO AND UNITY TOOLS\VC\TOOLS\MSVC\14.11.25503\INCLUDE\VCRUNTIME.H
E:\VISUAL STUDIO AND UNITY TOOLS\VC\TOOLS\MSVC\14.11.25503\INCLUDE\SAL.H
E:\VISUAL STUDIO AND UNITY TOOLS\VC\TOOLS\MSVC\14.11.25503\INCLUDE\CONCURRENCYSAL.H
E:\VISUAL STUDIO AND UNITY TOOLS\VC\TOOLS\MSVC\14.11.25503\INCLUDE\VADEFS.H
E:\VISUAL STUDIO AND UNITY TOOLS\VC\TOOLS\MSVC\14.11.25503\INCLUDE\STDARG.H
C:\PROGRAM FILES (X86)\WINDOWS KITS\10\INCLUDE\10.0.16299.0\SHARED\WINDEF.H
C:\PROGRAM FILES (X86)\WINDOWS KITS\10\INCLUDE\10.0.16299.0\SHARED\MINWINDEF.H
C:\PROGRAM FILES (X86)\WINDOWS KITS\10\INCLUDE\10.0.16299.0\SHARED\SPECSTRINGS.H
C:\PROGRAM FILES (X86)\WINDOWS KITS\10\INCLUDE\10.0.16299.0\SHARED\SPECSTRINGS_STRICT.H
C:\PROGRAM FILES (X86)\WINDOWS KITS\10\INCLUDE\10.0.16299.0\SHARED\SPECSTRINGS_UNDEF.H
C:\PROGRAM FILES (X86)\WINDOWS KITS\10\INCLUDE\10.0.16299.0\SHARED\DRIVERSPECS.H
C:\PROGRAM FILES (X86)\WINDOWS KITS\10\INCLUDE\10.0.16299.0\SHARED\SDV_DRIVERSPECS.H
C:\PROGRAM FILES (X86)\WINDOWS KITS\10\INCLUDE\10.0.16299.0\UM\WINNT.H
C:\PROGRAM FILES (X86)\WINDOWS KITS\10\INCLUDE\10.0.16299.0\UCRT\CTYPE.H
C:\PROGRAM FILES (X86)\WINDOWS KITS\10\INCLUDE\10.0.16299.0\UCRT\CORECRT.H
C:\PROGRAM FILES (X86)\WINDOWS KITS\10\INCLUDE\10.0.16299.0\UCRT\CORECRT_WCTYPE.H
C:\PROGRAM FILES (X86)\WINDOWS KITS\10\INCLUDE\10.0.16299.0\SHARED\KERNELSPECS.H
C:\PROGRAM FILES (X86)\WINDOWS KITS\10\INCLUDE\10.0.16299.0\SHARED\BASETSD.H
C:\PROGRAM FILES (X86)\WINDOWS KITS\10\INCLUDE\10.0.16299.0\SHARED\GUIDDEF.H
C:\PROGRAM FILES (X86)\WINDOWS KITS\10\INCLUDE\10.0.16299.0\UCRT\STRING.H
C:\PROGRAM FILES (X86)\WINDOWS KITS\10\INCLUDE\10.0.16299.0\UCRT\CORECRT_MEMORY.H
C:\PROGRAM FILES (X86)\WINDOWS KITS\10\INCLUDE\10.0.16299.0\UCRT\CORECRT_MEMCPY_S.H
C:\PROGRAM FILES (X86)\WINDOWS KITS\10\INCLUDE\10.0.16299.0\UCRT\ERRNO.H
E:\VISUAL STUDIO AND UNITY TOOLS\VC\TOOLS\MSVC\14.11.25503\INCLUDE\VCRUNTIME_STRING.H
C:\PROGRAM FILES (X86)\WINDOWS KITS\10\INCLUDE\10.0.16299.0\UCRT\CORECRT_WSTRING.H
C:\PROGRAM FILES (X86)\WINDOWS KITS\10\INCLUDE\10.0.16299.0\SHARED\PSHPACK4.H
C:\PROGRAM FILES (X86)\WINDOWS KITS\10\INCLUDE\10.0.16299.0\SHARED\POPPACK.H
C:\PROGRAM FILES (X86)\WINDOWS KITS\10\INCLUDE\10.0.16299.0\SHARED\PSHPACK2.H
C:\PROGRAM FILES (X86)\WINDOWS KITS\10\INCLUDE\10.0.16299.0\SHARED\PSHPACK8.H
C:\PROGRAM FILES (X86)\WINDOWS KITS\10\INCLUDE\10.0.16299.0\SHARED\PSHPACK1.H
C:\PROGRAM FILES (X86)\WINDOWS KITS\10\INCLUDE\10.0.16299.0\SHARED\APISET.H
C:\PROGRAM FILES (X86)\WINDOWS KITS\10\INCLUDE\10.0.16299.0\SHARED\KTMTYPES.H
C:\PROGRAM FILES (X86)\WINDOWS KITS\10\INCLUDE\10.0.16299.0\UM\WINBASE.H
C:\PROGRAM FILES (X86)\WINDOWS KITS\10\INCLUDE\10.0.16299.0\SHARED\APISETCCONV.H
C:\PROGRAM FILES (X86)\WINDOWS KITS\10\INCLUDE\10.0.16299.0\UM\MINWINBASE.H
C:\PROGRAM FILES (X86)\WINDOWS KITS\10\INCLUDE\10.0.16299.0\UM\PROCESSENV.H
C:\PROGRAM FILES (X86)\WINDOWS KITS\10\INCLUDE\10.0.16299.0\UM\FILEAPI.H
C:\PROGRAM FILES (X86)\WINDOWS KITS\10\INCLUDE\10.0.16299.0\UM\DEBUGAPI.H
C:\PROGRAM FILES (X86)\WINDOWS KITS\10\INCLUDE\10.0.16299.0\UM\UTILAPISET.H
C:\PROGRAM FILES (X86)\WINDOWS KITS\10\INCLUDE\10.0.16299.0\UM\HANDLEAPI.H
C:\PROGRAM FILES (X86)\WINDOWS KITS\10\INCLUDE\10.0.16299.0\UM\ERRHANDLINGAPI.H
C:\PROGRAM FILES (X86)\WINDOWS KITS\10\INCLUDE\10.0.16299.0\UM\FIBERSAPI.H
C:\PROGRAM FILES (X86)\WINDOWS KITS\10\INCLUDE\10.0.16299.0\UM\NAMEDPIPEAPI.H
C:\PROGRAM FILES (X86)\WINDOWS KITS\10\INCLUDE\10.0.16299.0\UM\PROFILEAPI.H
C:\PROGRAM FILES (X86)\WINDOWS KITS\10\INCLUDE\10.0.16299.0\UM\HEAPAPI.H
C:\PROGRAM FILES (X86)\WINDOWS KITS\10\INCLUDE\10.0.16299.0\UM\IOAPISET.H
C:\PROGRAM FILES (X86)\WINDOWS KITS\10\INCLUDE\10.0.16299.0\UM\SYNCHAPI.H
C:\PROGRAM FILES (X86)\WINDOWS KITS\10\INCLUDE\10.0.16299.0\UM\INTERLOCKEDAPI.H
C:\PROGRAM FILES (X86)\WINDOWS KITS\10\INCLUDE\10.0.16299.0\UM\PROCESSTHREADSAPI.H
C:\PROGRAM FILES (X86)\WINDOWS KITS\10\INCLUDE\10.0.16299.0\UM\SYSINFOAPI.H
C:\PROGRAM FILES (X86)\WINDOWS KITS\10\INCLUDE\10.0.16299.0\UM\MEMORYAPI.H
C:\PROGRAM FILES (X86)\WINDOWS KITS\10\INCLUDE\10.0.16299.0\UM\ENCLAVEAPI.H
C:\PROGRAM FILES (X86)\WINDOWS KITS\10\INCLUDE\10.0.16299.0\UM\THREADPOOLLEGACYAPISET.H
C:\PROGRAM FILES (X86)\WINDOWS KITS\10\INCLUDE\10.0.16299.0\UM\THREADPOOLAPISET.H
C:\PROGRAM FILES (X86)\WINDOWS KITS\10\INCLUDE\10.0.16299.0\UM\JOBAPI.H
C:\PROGRAM FILES (X86)\WINDOWS KITS\10\INCLUDE\10.0.16299.0\UM\JOBAPI2.H
C:\PROGRAM FILES (X86)\WINDOWS KITS\10\INCLUDE\10.0.16299.0\UM\WOW64APISET.H
C:\PROGRAM FILES (X86)\WINDOWS KITS\10\INCLUDE\10.0.16299.0\UM\LIBLOADERAPI.H
C:\PROGRAM FILES (X86)\WINDOWS KITS\10\INCLUDE\10.0.16299.0\UM\SECURITYBASEAPI.H
C:\PROGRAM FILES (X86)\WINDOWS KITS\10\INCLUDE\10.0.16299.0\UM\NAMESPACEAPI.H
C:\PROGRAM FILES (X86)\WINDOWS KITS\10\INCLUDE\10.0.16299.0\UM\SYSTEMTOPOLOGYAPI.H
C:\PROGRAM FILES (X86)\WINDOWS KITS\10\INCLUDE\10.0.16299.0\UM\PROCESSTOPOLOGYAPI.H
C:\PROGRAM FILES (X86)\WINDOWS KITS\10\INCLUDE\10.0.16299.0\UM\SECURITYAPPCONTAINER.H
C:\PROGRAM FILES (X86)\WINDOWS KITS\10\INCLUDE\10.0.16299.0\UM\REALTIMEAPISET.H
C:\PROGRAM FILES (X86)\WINDOWS KITS\10\INCLUDE\10.0.16299.0\SHARED\WINERROR.H
C:\PROGRAM FILES (X86)\WINDOWS KITS\10\INCLUDE\10.0.16299.0\UM\TIMEZONEAPI.H
C:\PROGRAM FILES (X86)\WINDOWS KITS\10\INCLUDE\10.0.16299.0\UM\WINGDI.H
C:\PROGRAM FILES (X86)\WINDOWS KITS\10\INCLUDE\10.0.16299.0\UM\WINUSER.H
C:\PROGRAM FILES (X86)\WINDOWS KITS\10\INCLUDE\10.0.16299.0\SHARED\TVOUT.H
C:\PROGRAM FILES (X86)\WINDOWS KITS\10\INCLUDE\10.0.16299.0\UM\WINNLS.H
C:\PROGRAM FILES (X86)\WINDOWS KITS\10\INCLUDE\10.0.16299.0\UM\DATETIMEAPI.H
C:\PROGRAM FILES (X86)\WINDOWS KITS\10\INCLUDE\10.0.16299.0\UM\STRINGAPISET.H
C:\PROGRAM FILES (X86)\WINDOWS KITS\10\INCLUDE\10.0.16299.0\UM\WINCON.H
C:\PROGRAM FILES (X86)\WINDOWS KITS\10\INCLUDE\10.0.16299.0\UM\CONSOLEAPI.H
C:\PROGRAM FILES (X86)\WINDOWS KITS\10\INCLUDE\10.0.16299.0\UM\WINVER.H
C:\PROGRAM FILES (X86)\WINDOWS KITS\10\INCLUDE\10.0.16299.0\UM\VERRSRC.H
C:\PROGRAM FILES (X86)\WINDOWS KITS\10\INCLUDE\10.0.16299.0\UM\WINREG.H
C:\PROGRAM FILES (X86)\WINDOWS KITS\10\INCLUDE\10.0.16299.0\UM\REASON.H
C:\PROGRAM FILES (X86)\WINDOWS KITS\10\INCLUDE\10.0.16299.0\UM\WINNETWK.H
C:\PROGRAM FILES (X86)\WINDOWS KITS\10\INCLUDE\10.0.16299.0\SHARED\WNNC.H
C:\PROGRAM FILES (X86)\WINDOWS KITS\10\INCLUDE\10.0.16299.0\SHARED\STRALIGN.H
C:\PROGRAM FILES (X86)\WINDOWS KITS\10\INCLUDE\10.0.16299.0\UM\WINSVC.H
C:\PROGRAM FILES (X86)\WINDOWS KITS\10\INCLUDE\10.0.16299.0\UM\MCX.H
C:\PROGRAM FILES (X86)\WINDOWS KITS\10\INCLUDE\10.0.16299.0\UM\IMM.H
C:\PROGRAM FILES (X86)\WINDOWS KITS\10\INCLUDE\10.0.16299.0\UM\IME_CMODES.H
C:\PROGRAM FILES (X86)\WINDOWS KITS\10\INCLUDE\10.0.16299.0\UM\WINSOCK2.H
C:\PROGRAM FILES (X86)\WINDOWS KITS\10\INCLUDE\10.0.16299.0\SHARED\WS2DEF.H
C:\PROGRAM FILES (X86)\WINDOWS KITS\10\INCLUDE\10.0.16299.0\SHARED\INADDR.H
C:\PROGRAM FILES (X86)\WINDOWS KITS\10\INCLUDE\10.0.16299.0\SHARED\QOS.H
C:\PROGRAM FILES (X86)\WINDOWS KITS\10\INCLUDE\10.0.16299.0\UM\WS2TCPIP.H
C:\PROGRAM FILES (X86)\WINDOWS KITS\10\INCLUDE\10.0.16299.0\SHARED\WS2IPDEF.H
C:\PROGRAM FILES (X86)\WINDOWS KITS\10\INCLUDE\10.0.16299.0\SHARED\IN6ADDR.H
E:\VISUAL STUDIO AND UNITY TOOLS\VC\TOOLS\MSVC\14.11.25503\INCLUDE\LIMITS.H
E:\VISUAL STUDIO AND UNITY TOOLS\VC\TOOLS\MSVC\14.11.25503\INCLUDE\MEMORY
E:\VISUAL STUDIO AND UNITY TOOLS\VC\TOOLS\MSVC\14.11.25503\INCLUDE\XMEMORY
E:\VISUAL STUDIO AND UNITY TOOLS\VC\TOOLS\MSVC\14.11.25503\INCLUDE\XMEMORY0
E:\VISUAL STUDIO AND UNITY TOOLS\VC\TOOLS\MSVC\14.11.25503\INCLUDE\CSTDINT
E:\VISUAL STUDIO AND UNITY TOOLS\VC\TOOLS\MSVC\14.11.25503\INCLUDE\YVALS.H
E:\VISUAL STUDIO AND UNITY TOOLS\VC\TOOLS\MSVC\14.11.25503\INCLUDE\XKEYCHECK.H
E:\VISUAL STUDIO AND UNITY TOOLS\VC\TOOLS\MSVC\14.11.25503\INCLUDE\CRTDEFS.H
E:\VISUAL STUDIO AND UNITY TOOLS\VC\TOOLS\MSVC\14.11.25503\INCLUDE\USE_ANSI.H
E:\VISUAL STUDIO AND UNITY TOOLS\VC\TOOLS\MSVC\14.11.25503\INCLUDE\STDINT.H
E:\VISUAL STUDIO AND UNITY TOOLS\VC\TOOLS\MSVC\14.11.25503\INCLUDE\CSTDLIB
C:\PROGRAM FILES (X86)\WINDOWS KITS\10\INCLUDE\10.0.16299.0\UCRT\STDLIB.H
C:\PROGRAM FILES (X86)\WINDOWS KITS\10\INCLUDE\10.0.16299.0\UCRT\CORECRT_MALLOC.H
C:\PROGRAM FILES (X86)\WINDOWS KITS\10\INCLUDE\10.0.16299.0\UCRT\CORECRT_SEARCH.H
C:\PROGRAM FILES (X86)\WINDOWS KITS\10\INCLUDE\10.0.16299.0\UCRT\STDDEF.H
C:\PROGRAM FILES (X86)\WINDOWS KITS\10\INCLUDE\10.0.16299.0\UCRT\CORECRT_WSTDLIB.H
C:\PROGRAM FILES (X86)\WINDOWS KITS\10\INCLUDE\10.0.16299.0\UCRT\MATH.H
C:\PROGRAM FILES (X86)\WINDOWS KITS\10\INCLUDE\10.0.16299.0\UCRT\CORECRT_MATH.H
E:\VISUAL STUDIO AND UNITY TOOLS\VC\TOOLS\MSVC\14.11.25503\INCLUDE\LIMITS
E:\VISUAL STUDIO AND UNITY TOOLS\VC\TOOLS\MSVC\14.11.25503\INCLUDE\YMATH.H
E:\VISUAL STUDIO AND UNITY TOOLS\VC\TOOLS\MSVC\14.11.25503\INCLUDE\CFLOAT
C:\PROGRAM FILES (X86)\WINDOWS KITS\10\INCLUDE\10.0.16299.0\UCRT\FLOAT.H
E:\VISUAL STUDIO AND UNITY TOOLS\VC\TOOLS\MSVC\14.11.25503\INCLUDE\CLIMITS
E:\VISUAL STUDIO AND UNITY TOOLS\VC\TOOLS\MSVC\14.11.25503\INCLUDE\CMATH
E:\VISUAL STUDIO AND UNITY TOOLS\VC\TOOLS\MSVC\14.11.25503\INCLUDE\XTGMATH.H
E:\VISUAL STUDIO AND UNITY TOOLS\VC\TOOLS\MSVC\14.11.25503\INCLUDE\XTR1COMMON
E:\VISUAL STUDIO AND UNITY TOOLS\VC\TOOLS\MSVC\14.11.25503\INCLUDE\CWCHAR
C:\PROGRAM FILES (X86)\WINDOWS KITS\10\INCLUDE\10.0.16299.0\UCRT\WCHAR.H
C:\PROGRAM FILES (X86)\WINDOWS KITS\10\INCLUDE\10.0.16299.0\UCRT\CORECRT_WCONIO.H
C:\PROGRAM FILES (X86)\WINDOWS KITS\10\INCLUDE\10.0.16299.0\UCRT\CORECRT_STDIO_CONFIG.H
C:\PROGRAM FILES (X86)\WINDOWS KITS\10\INCLUDE\10.0.16299.0\UCRT\CORECRT_WDIRECT.H
C:\PROGRAM FILES (X86)\WINDOWS KITS\10\INCLUDE\10.0.16299.0\UCRT\CORECRT_WIO.H
C:\PROGRAM FILES (X86)\WINDOWS KITS\10\INCLUDE\10.0.16299.0\UCRT\CORECRT_SHARE.H
C:\PROGRAM FILES (X86)\WINDOWS KITS\10\INCLUDE\10.0.16299.0\UCRT\CORECRT_WPROCESS.H
C:\PROGRAM FILES (X86)\WINDOWS KITS\10\INCLUDE\10.0.16299.0\UCRT\CORECRT_WSTDIO.H
C:\PROGRAM FILES (X86)\WINDOWS KITS\10\INCLUDE\10.0.16299.0\UCRT\CORECRT_WTIME.H
C:\PROGRAM FILES (X86)\WINDOWS KITS\10\INCLUDE\10.0.16299.0\UCRT\SYS\STAT.H
C:\PROGRAM FILES (X86)\WINDOWS KITS\10\INCLUDE\10.0.16299.0\UCRT\SYS\TYPES.H
E:\VISUAL STUDIO AND UNITY TOOLS\VC\TOOLS\MSVC\14.11.25503\INCLUDE\XSTDDEF
E:\VISUAL STUDIO AND UNITY TOOLS\VC\TOOLS\MSVC\14.11.25503\INCLUDE\CSTDDEF
E:\VISUAL STUDIO AND UNITY TOOLS\VC\TOOLS\MSVC\14.11.25503\INCLUDE\INITIALIZER_LIST
E:\VISUAL STUDIO AND UNITY TOOLS\VC\TOOLS\MSVC\14.11.25503\INCLUDE\NEW
E:\VISUAL STUDIO AND UNITY TOOLS\VC\TOOLS\MSVC\14.11.25503\INCLUDE\EXCEPTION
E:\VISUAL STUDIO AND UNITY TOOLS\VC\TOOLS\MSVC\14.11.25503\INCLUDE\TYPE_TRAITS
C:\PROGRAM FILES (X86)\WINDOWS KITS\10\INCLUDE\10.0.16299.0\UCRT\MALLOC.H
E:\VISUAL STUDIO AND UNITY TOOLS\VC\TOOLS\MSVC\14.11.25503\INCLUDE\VCRUNTIME_EXCEPTION.H
E:\VISUAL STUDIO AND UNITY TOOLS\VC\TOOLS\MSVC\14.11.25503\INCLUDE\EH.H
C:\PROGRAM FILES (X86)\WINDOWS KITS\10\INCLUDE\10.0.16299.0\UCRT\CORECRT_TERMINATE.H
E:\VISUAL STUDIO AND UNITY TOOLS\VC\TOOLS\MSVC\14.11.25503\INCLUDE\VCRUNTIME_NEW.H
E:\VISUAL STUDIO AND UNITY TOOLS\VC\TOOLS\MSVC\14.11.25503\INCLUDE\XUTILITY
E:\VISUAL STUDIO AND UNITY TOOLS\VC\TOOLS\MSVC\14.11.25503\INCLUDE\UTILITY
E:\VISUAL STUDIO AND UNITY TOOLS\VC\TOOLS\MSVC\14.11.25503\INCLUDE\IOSFWD
E:\VISUAL STUDIO AND UNITY TOOLS\VC\TOOLS\MSVC\14.11.25503\INCLUDE\CSTDIO
C:\PROGRAM FILES (X86)\WINDOWS KITS\10\INCLUDE\10.0.16299.0\UCRT\STDIO.H
E:\VISUAL STUDIO AND UNITY TOOLS\VC\TOOLS\MSVC\14.11.25503\INCLUDE\CSTRING
C:\PROGRAM FILES (X86)\WINDOWS KITS\10\INCLUDE\10.0.16299.0\UCRT\CRTDBG.H
E:\VISUAL STUDIO AND UNITY TOOLS\VC\TOOLS\MSVC\14.11.25503\INCLUDE\VCRUNTIME_NEW_DEBUG.H
E:\VISUAL STUDIO AND UNITY TOOLS\VC\TOOLS\MSVC\14.11.25503\INCLUDE\XATOMIC0.H
E:\VISUAL STUDIO AND UNITY TOOLS\VC\TOOLS\MSVC\14.11.25503\INCLUDE\INTRIN0.H
E:\VISUAL STUDIO AND UNITY TOOLS\VC\TOOLS\MSVC\14.11.25503\INCLUDE\TYPEINFO
E:\VISUAL STUDIO AND UNITY TOOLS\VC\TOOLS\MSVC\14.11.25503\INCLUDE\VCRUNTIME_TYPEINFO.H
E:\VISUAL STUDIO AND UNITY TOOLS\VC\TOOLS\MSVC\14.11.25503\INCLUDE\VECTOR
E:\VISUAL STUDIO AND UNITY TOOLS\VC\TOOLS\MSVC\14.11.25503\INCLUDE\STDEXCEPT
E:\VISUAL STUDIO AND UNITY TOOLS\VC\TOOLS\MSVC\14.11.25503\INCLUDE\XSTRING
E:\VISUAL STUDIO AND UNITY TOOLS\VC\TOOLS\MSVC\14.11.25503\INCLUDE\UNORDERED_MAP
E:\VISUAL STUDIO AND UNITY TOOLS\VC\TOOLS\MSVC\14.11.25503\INCLUDE\XHASH
E:\VISUAL STUDIO AND UNITY TOOLS\VC\TOOLS\MSVC\14.11.25503\INCLUDE\LIST
E:\VISUAL STUDIO AND UNITY TOOLS\VC\TOOLS\MSVC\14.11.25503\INCLUDE\TUPLE
E:\VISUAL STUDIO AND UNITY TOOLS\VC\TOOLS\MSVC\14.11.25503\INCLUDE\STRING
E:\VISUAL STUDIO AND UNITY TOOLS\VC\TOOLS\MSVC\14.11.25503\INCLUDE\ISTREAM
E:\VISUAL STUDIO AND UNITY TOOLS\VC\TOOLS\MSVC\14.11.25503\INCLUDE\OSTREAM
E:\VISUAL STUDIO AND UNITY TOOLS\VC\TOOLS\MSVC\14.11.25503\INCLUDE\IOS
E:\VISUAL STUDIO AND UNITY TOOLS\VC\TOOLS\MSVC\14.11.25503\INCLUDE\XLOCNUM
E:\VISUAL STUDIO AND UNITY TOOLS\VC\TOOLS\MSVC\14.11.25503\INCLUDE\STREAMBUF
E:\VISUAL STUDIO AND UNITY TOOLS\VC\TOOLS\MSVC\14.11.25503\INCLUDE\XIOSBASE
E:\VISUAL STUDIO AND UNITY TOOLS\VC\TOOLS\MSVC\14.11.25503\INCLUDE\XLOCALE
E:\VISUAL STUDIO AND UNITY TOOLS\VC\TOOLS\MSVC\14.11.25503\INCLUDE\XLOCINFO
E:\VISUAL STUDIO AND UNITY TOOLS\VC\TOOLS\MSVC\14.11.25503\INCLUDE\XLOCINFO.H
C:\PROGRAM FILES (X86)\WINDOWS KITS\10\INCLUDE\10.0.16299.0\UCRT\LOCALE.H
E:\VISUAL STUDIO AND UNITY TOOLS\VC\TOOLS\MSVC\14.11.25503\INCLUDE\XFACET
E:\VISUAL STUDIO AND UNITY TOOLS\VC\TOOLS\MSVC\14.11.25503\INCLUDE\SYSTEM_ERROR
E:\VISUAL STUDIO AND UNITY TOOLS\VC\TOOLS\MSVC\14.11.25503\INCLUDE\CERRNO
E:\VISUAL STUDIO AND UNITY TOOLS\VC\TOOLS\MSVC\14.11.25503\INCLUDE\XCALL_ONCE.H
C:\PROGRAM FILES (X86)\WINDOWS KITS\10\INCLUDE\10.0.16299.0\UCRT\SHARE.H
E:\VISUAL STUDIO AND UNITY TOOLS\VC\TOOLS\MSVC\14.11.25503\INCLUDE\XSTRING_INSERT.H
E:\VISUAL STUDIO AND UNITY TOOLS\VC\TOOLS\MSVC\14.11.25503\INCLUDE\QUEUE
E:\VISUAL STUDIO AND UNITY TOOLS\VC\TOOLS\MSVC\14.11.25503\INCLUDE\ALGORITHM
E:\VISUAL STUDIO AND UNITY TOOLS\VC\TOOLS\MSVC\14.11.25503\INCLUDE\DEQUE
E:\VISUAL STUDIO AND UNITY TOOLS\VC\TOOLS\MSVC\14.11.25503\INCLUDE\UNORDERED_SET
E:\VISUAL STUDIO AND UNITY TOOLS\VC\TOOLS\MSVC\14.11.25503\INCLUDE\CASSERT
C:\PROGRAM FILES (X86)\WINDOWS KITS\10\INCLUDE\10.0.16299.0\UCRT\ASSERT.H
C:\USERS\ARNAS\DESKTOP\ROBOCATACTION\ROBOCAT\INC\ROBOMATH.H
C:\USERS\ARNAS\DESKTOP\ROBOCATACTION\ROBOCAT\INC\STRINGUTILS.H
C:\USERS\ARNAS\DESKTOP\ROBOCATACTION\ROBOCAT\INC\SOCKETADDRESS.H
C:\USERS\ARNAS\DESKTOP\ROBOCATACTION\ROBOCAT\INC\SOCKETADDRESSFACTORY.H
C:\USERS\ARNAS\DESKTOP\ROBOCATACTION\ROBOCAT\INC\UDPSOCKET.H
C:\USERS\ARNAS\DESKTOP\ROBOCATACTION\ROBOCAT\INC\TCPSOCKET.H
C:\USERS\ARNAS\DESKTOP\ROBOCATACTION\ROBOCAT\INC\SOCKETUTIL.H
C:\USERS\ARNAS\DESKTOP\ROBOCATACTION\ROBOCAT\INC\BYTESWAP.H
C:\USERS\ARNAS\DESKTOP\ROBOCATACTION\ROBOCAT\INC\LINKINGCONTEXT.H
C:\USERS\ARNAS\DESKTOP\ROBOCATACTION\ROBOCAT\INC\MEMORYBITSTREAM.H
C:\USERS\ARNAS\DESKTOP\ROBOCATACTION\ROBOCAT\INC\TRANSMISSIONDATA.H
C:\USERS\ARNAS\DESKTOP\ROBOCATACTION\ROBOCAT\INC\INFLIGHTPACKET.H
C:\USERS\ARNAS\DESKTOP\ROBOCATACTION\ROBOCAT\INC\ACKRANGE.H
C:\USERS\ARNAS\DESKTOP\ROBOCATACTION\ROBOCAT\INC\DELIVERYNOTIFICATIONMANAGER.H
C:\USERS\ARNAS\DESKTOP\ROBOCATACTION\ROBOCAT\INC\INPUTACTION.H
C:\USERS\ARNAS\DESKTOP\ROBOCATACTION\ROBOCAT\INC\INPUTSTATE.H
C:\USERS\ARNAS\DESKTOP\ROBOCATACTION\ROBOCAT\INC\MOVE.H
C:\USERS\ARNAS\DESKTOP\ROBOCATACTION\ROBOCAT\INC\MOVELIST.H
C:\USERS\ARNAS\DESKTOP\ROBOCATACTION\ROBOCAT\INC\GAMEOBJECT.H
C:\USERS\ARNAS\DESKTOP\ROBOCATACTION\ROBOCAT\INC\GAMEOBJECTREGISTRY.H
C:\USERS\ARNAS\DESKTOP\ROBOCATACTION\ROBOCAT\INC\ROBOCAT.H
C:\USERS\ARNAS\DESKTOP\ROBOCATACTION\ROBOCAT\INC\WORLD.H
C:\USERS\ARNAS\DESKTOP\ROBOCATACTION\ROBOCAT\INC\TIMING.H
C:\USERS\ARNAS\DESKTOP\ROBOCATACTION\ROBOCAT\INC\MOUSE.H
C:\USERS\ARNAS\DESKTOP\ROBOCATACTION\ROBOCAT\INC\YARN.H
C:\USERS\ARNAS\DESKTOP\ROBOCATACTION\ROBOCAT\INC\SCOREBOARDMANAGER.H
C:\USERS\ARNAS\DESKTOP\ROBOCATACTION\ROBOCAT\INC\WEIGHTEDTIMEDMOVINGAVERAGE.H
C:\USERS\ARNAS\DESKTOP\ROBOCATACTION\ROBOCAT\INC\REPLICATIONCOMMAND.H
C:\USERS\ARNAS\DESKTOP\ROBOCATACTION\ROBOCAT\INC\NETWORKMANAGER.H
C:\USERS\ARNAS\DESKTOP\ROBOCATACTION\ROBOCAT\INC\ENGINE.H
C:\USERS\ARNAS\DESKTOP\ROBOCATACTION\SDL\INCLUDE\SDL_EVENTS.H
C:\USERS\ARNAS\DESKTOP\ROBOCATACTION\SDL\INCLUDE\SDL_STDINC.H
C:\USERS\ARNAS\DESKTOP\ROBOCATACTION\SDL\INCLUDE\SDL_CONFIG.H
C:\USERS\ARNAS\DESKTOP\ROBOCATACTION\SDL\INCLUDE\SDL_PLATFORM.H
C:\USERS\ARNAS\DESKTOP\ROBOCATACTION\SDL\INCLUDE\BEGIN_CODE.H
C:\USERS\ARNAS\DESKTOP\ROBOCATACTION\SDL\INCLUDE\CLOSE_CODE.H
C:\USERS\ARNAS\DESKTOP\ROBOCATACTION\SDL\INCLUDE\SDL_ERROR.H
C:\USERS\ARNAS\DESKTOP\ROBOCATACTION\SDL\INCLUDE\SDL_VIDEO.H
C:\USERS\ARNAS\DESKTOP\ROBOCATACTION\SDL\INCLUDE\SDL_PIXELS.H
C:\USERS\ARNAS\DESKTOP\ROBOCATACTION\SDL\INCLUDE\SDL_RECT.H
C:\USERS\ARNAS\DESKTOP\ROBOCATACTION\SDL\INCLUDE\SDL_RWOPS.H
C:\USERS\ARNAS\DESKTOP\ROBOCATACTION\SDL\INCLUDE\SDL_SURFACE.H
C:\USERS\ARNAS\DESKTOP\ROBOCATACTION\SDL\INCLUDE\SDL_BLENDMODE.H
C:\USERS\ARNAS\DESKTOP\ROBOCATACTION\SDL\INCLUDE\SDL_KEYBOARD.H
C:\USERS\ARNAS\DESKTOP\ROBOCATACTION\SDL\INCLUDE\SDL_KEYCODE.H
C:\USERS\ARNAS\DESKTOP\ROBOCATACTION\SDL\INCLUDE\SDL_SCANCODE.H
C:\USERS\ARNAS\DESKTOP\ROBOCATACTION\SDL\INCLUDE\SDL_MOUSE.H
C:\USERS\ARNAS\DESKTOP\ROBOCATACTION\SDL\INCLUDE\SDL_JOYSTICK.H
C:\USERS\ARNAS\DESKTOP\ROBOCATACTION\SDL\INCLUDE\SDL_GAMECONTROLLER.H
C:\USERS\ARNAS\DESKTOP\ROBOCATACTION\SDL\INCLUDE\SDL_QUIT.H
C:\USERS\ARNAS\DESKTOP\ROBOCATACTION\SDL\INCLUDE\SDL_GESTURE.H
C:\USERS\ARNAS\DESKTOP\ROBOCATACTION\SDL\INCLUDE\SDL_TOUCH.H
C:\USERS\ARNAS\DESKTOP\ROBOCATACTION\ROBOCATSERVER\INC\REPLICATIONMANAGERTRANSMISSIONDATA.H
C:\USERS\ARNAS\DESKTOP\ROBOCATACTION\ROBOCATSERVER\INC\REPLICATIONMANAGERSERVER.H
C:\USERS\ARNAS\DESKTOP\ROBOCATACTION\ROBOCATSERVER\INC\CLIENTPROXY.H
C:\USERS\ARNAS\DESKTOP\ROBOCATACTION\ROBOCATSERVER\INC\NETWORKMANAGERSERVER.H
C:\USERS\ARNAS\DESKTOP\ROBOCATACTION\ROBOCATSERVER\INC\SERVER.H
C:\USERS\ARNAS\DESKTOP\ROBOCATACTION\ROBOCATSERVER\INC\ROBOCATSERVER.H
C:\USERS\ARNAS\DESKTOP\ROBOCATACTION\ROBOCATSERVER\INC\MOUSESERVER.H
C:\USERS\ARNAS\DESKTOP\ROBOCATACTION\ROBOCATSERVER\INC\YARNSERVER.H
^C:\USERS\ARNAS\DESKTOP\ROBOCATACTION\ROBOCATSERVER\SRC\MOUSESERVER.CPP
C:\USERS\ARNAS\DESKTOP\ROBOCATACTION\ROBOCATSERVER\DEBUG\ROBOCATSERVER.PCH
^C:\USERS\ARNAS\DESKTOP\ROBOCATACTION\ROBOCATSERVER\SRC\ROBOCATSERVER.CPP
C:\USERS\ARNAS\DESKTOP\ROBOCATACTION\ROBOCATSERVER\DEBUG\ROBOCATSERVER.PCH
^C:\USERS\ARNAS\DESKTOP\ROBOCATACTION\ROBOCATSERVER\SRC\NETWORKMANAGERSERVER.CPP
C:\USERS\ARNAS\DESKTOP\ROBOCATACTION\ROBOCATSERVER\DEBUG\ROBOCATSERVER.PCH
^C:\USERS\ARNAS\DESKTOP\ROBOCATACTION\ROBOCATSERVER\SRC\SERVERMAIN.CPP
C:\USERS\ARNAS\DESKTOP\ROBOCATACTION\ROBOCATSERVER\DEBUG\ROBOCATSERVER.PCH
^C:\USERS\ARNAS\DESKTOP\ROBOCATACTION\ROBOCATSERVER\SRC\SERVER.CPP
C:\USERS\ARNAS\DESKTOP\ROBOCATACTION\ROBOCATSERVER\DEBUG\ROBOCATSERVER.PCH
^C:\USERS\ARNAS\DESKTOP\ROBOCATACTION\ROBOCATSERVER\SRC\REPLICATIONMANAGERTRANSMISSIONDATA.CPP
C:\USERS\ARNAS\DESKTOP\ROBOCATACTION\ROBOCATSERVER\DEBUG\ROBOCATSERVER.PCH
^C:\USERS\ARNAS\DESKTOP\ROBOCATACTION\ROBOCATSERVER\SRC\REPLICATIONMANAGERSERVER.CPP
C:\USERS\ARNAS\DESKTOP\ROBOCATACTION\ROBOCATSERVER\DEBUG\ROBOCATSERVER.PCH
^C:\USERS\ARNAS\DESKTOP\ROBOCATACTION\ROBOCATSERVER\SRC\CLIENTPROXY.CPP
C:\USERS\ARNAS\DESKTOP\ROBOCATACTION\ROBOCATSERVER\DEBUG\ROBOCATSERVER.PCH
^C:\USERS\ARNAS\DESKTOP\ROBOCATACTION\ROBOCATSERVER\SRC\YARNSERVER.CPP
C:\USERS\ARNAS\DESKTOP\ROBOCATACTION\ROBOCATSERVER\DEBUG\ROBOCATSERVER.PCH
