^C:\USERS\ARNAS\DESKTOP\ROBOCATACTION\ROBOCAT\SRC\ACKRANGE.CPP
/c /I..\DIRECTXTK\INC /IINC /I..\ /Zi /nologo /W4 /WX- /diagnostics:classic /Od /Oi /D WIN32 /D _DEBUG /D DEBUG /D PROFILE /D _WINDOWS /D _WIN32_WINNT=0x0600 /D _UNICODE /D UNICODE /Gm- /EHsc /RTC1 /MDd /GS /fp:fast /Zc:wchar_t /Zc:forScope /Zc:inline /openmp- /Fo"X64\DEBUG\\" /Fd"X64\DEBUG\VC141.PDB" /Gd /TP   C:\USERS\ARNAS\DESKTOP\ROBOCATACTION\ROBOCAT\SRC\ACKRANGE.CPP
^C:\USERS\ARNAS\DESKTOP\ROBOCATACTION\ROBOCAT\SRC\YARN.CPP
/c /I..\DIRECTXTK\INC /IINC /I..\ /Zi /nologo /W4 /WX- /diagnostics:classic /Od /Oi /D WIN32 /D _DEBUG /D DEBUG /D PROFILE /D _WINDOWS /D _WIN32_WINNT=0x0600 /D _UNICODE /D UNICODE /Gm- /EHsc /RTC1 /MDd /GS /fp:fast /Zc:wchar_t /Zc:forScope /Zc:inline /openmp- /Fo"X64\DEBUG\\" /Fd"X64\DEBUG\VC141.PDB" /Gd /TP   C:\USERS\ARNAS\DESKTOP\ROBOCATACTION\ROBOCAT\SRC\YARN.CPP
^C:\USERS\ARNAS\DESKTOP\ROBOCATACTION\ROBOCAT\SRC\DELIVERYNOTIFICATIONMANAGER.CPP
/c /I..\DIRECTXTK\INC /IINC /I..\ /Zi /nologo /W4 /WX- /diagnostics:classic /Od /Oi /D WIN32 /D _DEBUG /D DEBUG /D PROFILE /D _WINDOWS /D _WIN32_WINNT=0x0600 /D _UNICODE /D UNICODE /Gm- /EHsc /RTC1 /MDd /GS /fp:fast /Zc:wchar_t /Zc:forScope /Zc:inline /openmp- /Fo"X64\DEBUG\\" /Fd"X64\DEBUG\VC141.PDB" /Gd /TP   C:\USERS\ARNAS\DESKTOP\ROBOCATACTION\ROBOCAT\SRC\DELIVERYNOTIFICATIONMANAGER.CPP
^C:\USERS\ARNAS\DESKTOP\ROBOCATACTION\ROBOCAT\SRC\ENGINE.CPP
/c /I..\DIRECTXTK\INC /IINC /I..\ /Zi /nologo /W4 /WX- /diagnostics:classic /Od /Oi /D WIN32 /D _DEBUG /D DEBUG /D PROFILE /D _WINDOWS /D _WIN32_WINNT=0x0600 /D _UNICODE /D UNICODE /Gm- /EHsc /RTC1 /MDd /GS /fp:fast /Zc:wchar_t /Zc:forScope /Zc:inline /openmp- /Fo"X64\DEBUG\\" /Fd"X64\DEBUG\VC141.PDB" /Gd /TP   C:\USERS\ARNAS\DESKTOP\ROBOCATACTION\ROBOCAT\SRC\ENGINE.CPP
^C:\USERS\ARNAS\DESKTOP\ROBOCATACTION\ROBOCAT\SRC\GAMEOBJECTREGISTRY.CPP
/c /I..\DIRECTXTK\INC /IINC /I..\ /Zi /nologo /W4 /WX- /diagnostics:classic /Od /Oi /D WIN32 /D _DEBUG /D DEBUG /D PROFILE /D _WINDOWS /D _WIN32_WINNT=0x0600 /D _UNICODE /D UNICODE /Gm- /EHsc /RTC1 /MDd /GS /fp:fast /Zc:wchar_t /Zc:forScope /Zc:inline /openmp- /Fo"X64\DEBUG\\" /Fd"X64\DEBUG\VC141.PDB" /Gd /TP   C:\USERS\ARNAS\DESKTOP\ROBOCATACTION\ROBOCAT\SRC\GAMEOBJECTREGISTRY.CPP
^C:\USERS\ARNAS\DESKTOP\ROBOCATACTION\ROBOCAT\SRC\INFLIGHTPACKET.CPP
/c /I..\DIRECTXTK\INC /IINC /I..\ /Zi /nologo /W4 /WX- /diagnostics:classic /Od /Oi /D WIN32 /D _DEBUG /D DEBUG /D PROFILE /D _WINDOWS /D _WIN32_WINNT=0x0600 /D _UNICODE /D UNICODE /Gm- /EHsc /RTC1 /MDd /GS /fp:fast /Zc:wchar_t /Zc:forScope /Zc:inline /openmp- /Fo"X64\DEBUG\\" /Fd"X64\DEBUG\VC141.PDB" /Gd /TP   C:\USERS\ARNAS\DESKTOP\ROBOCATACTION\ROBOCAT\SRC\INFLIGHTPACKET.CPP
^C:\USERS\ARNAS\DESKTOP\ROBOCATACTION\ROBOCAT\SRC\INPUTSTATE.CPP
/c /I..\DIRECTXTK\INC /IINC /I..\ /Zi /nologo /W4 /WX- /diagnostics:classic /Od /Oi /D WIN32 /D _DEBUG /D DEBUG /D PROFILE /D _WINDOWS /D _WIN32_WINNT=0x0600 /D _UNICODE /D UNICODE /Gm- /EHsc /RTC1 /MDd /GS /fp:fast /Zc:wchar_t /Zc:forScope /Zc:inline /openmp- /Fo"X64\DEBUG\\" /Fd"X64\DEBUG\VC141.PDB" /Gd /TP   C:\USERS\ARNAS\DESKTOP\ROBOCATACTION\ROBOCAT\SRC\INPUTSTATE.CPP
^C:\USERS\ARNAS\DESKTOP\ROBOCATACTION\ROBOCAT\SRC\MEMORYBITSTREAM.CPP
/c /I..\DIRECTXTK\INC /IINC /I..\ /Zi /nologo /W4 /WX- /diagnostics:classic /Od /Oi /D WIN32 /D _DEBUG /D DEBUG /D PROFILE /D _WINDOWS /D _WIN32_WINNT=0x0600 /D _UNICODE /D UNICODE /Gm- /EHsc /RTC1 /MDd /GS /fp:fast /Zc:wchar_t /Zc:forScope /Zc:inline /openmp- /Fo"X64\DEBUG\\" /Fd"X64\DEBUG\VC141.PDB" /Gd /TP   C:\USERS\ARNAS\DESKTOP\ROBOCATACTION\ROBOCAT\SRC\MEMORYBITSTREAM.CPP
^C:\USERS\ARNAS\DESKTOP\ROBOCATACTION\ROBOCAT\SRC\MOVE.CPP
/c /I..\DIRECTXTK\INC /IINC /I..\ /Zi /nologo /W4 /WX- /diagnostics:classic /Od /Oi /D WIN32 /D _DEBUG /D DEBUG /D PROFILE /D _WINDOWS /D _WIN32_WINNT=0x0600 /D _UNICODE /D UNICODE /Gm- /EHsc /RTC1 /MDd /GS /fp:fast /Zc:wchar_t /Zc:forScope /Zc:inline /openmp- /Fo"X64\DEBUG\\" /Fd"X64\DEBUG\VC141.PDB" /Gd /TP   C:\USERS\ARNAS\DESKTOP\ROBOCATACTION\ROBOCAT\SRC\MOVE.CPP
^C:\USERS\ARNAS\DESKTOP\ROBOCATACTION\ROBOCAT\SRC\MOVELIST.CPP
/c /I..\DIRECTXTK\INC /IINC /I..\ /Zi /nologo /W4 /WX- /diagnostics:classic /Od /Oi /D WIN32 /D _DEBUG /D DEBUG /D PROFILE /D _WINDOWS /D _WIN32_WINNT=0x0600 /D _UNICODE /D UNICODE /Gm- /EHsc /RTC1 /MDd /GS /fp:fast /Zc:wchar_t /Zc:forScope /Zc:inline /openmp- /Fo"X64\DEBUG\\" /Fd"X64\DEBUG\VC141.PDB" /Gd /TP   C:\USERS\ARNAS\DESKTOP\ROBOCATACTION\ROBOCAT\SRC\MOVELIST.CPP
^C:\USERS\ARNAS\DESKTOP\ROBOCATACTION\ROBOCAT\SRC\NETWORKMANAGER.CPP
/c /I..\DIRECTXTK\INC /IINC /I..\ /Zi /nologo /W4 /WX- /diagnostics:classic /Od /Oi /D WIN32 /D _DEBUG /D DEBUG /D PROFILE /D _WINDOWS /D _WIN32_WINNT=0x0600 /D _UNICODE /D UNICODE /Gm- /EHsc /RTC1 /MDd /GS /fp:fast /Zc:wchar_t /Zc:forScope /Zc:inline /openmp- /Fo"X64\DEBUG\\" /Fd"X64\DEBUG\VC141.PDB" /Gd /TP   C:\USERS\ARNAS\DESKTOP\ROBOCATACTION\ROBOCAT\SRC\NETWORKMANAGER.CPP
^C:\USERS\ARNAS\DESKTOP\ROBOCATACTION\ROBOCAT\SRC\ROBOMATH.CPP
/c /I..\DIRECTXTK\INC /IINC /I..\ /Zi /nologo /W4 /WX- /diagnostics:classic /Od /Oi /D WIN32 /D _DEBUG /D DEBUG /D PROFILE /D _WINDOWS /D _WIN32_WINNT=0x0600 /D _UNICODE /D UNICODE /Gm- /EHsc /RTC1 /MDd /GS /fp:fast /Zc:wchar_t /Zc:forScope /Zc:inline /openmp- /Fo"X64\DEBUG\\" /Fd"X64\DEBUG\VC141.PDB" /Gd /TP   C:\USERS\ARNAS\DESKTOP\ROBOCATACTION\ROBOCAT\SRC\ROBOMATH.CPP
^C:\USERS\ARNAS\DESKTOP\ROBOCATACTION\ROBOCAT\SRC\SCOREBOARDMANAGER.CPP
/c /I..\DIRECTXTK\INC /IINC /I..\ /Zi /nologo /W4 /WX- /diagnostics:classic /Od /Oi /D WIN32 /D _DEBUG /D DEBUG /D PROFILE /D _WINDOWS /D _WIN32_WINNT=0x0600 /D _UNICODE /D UNICODE /Gm- /EHsc /RTC1 /MDd /GS /fp:fast /Zc:wchar_t /Zc:forScope /Zc:inline /openmp- /Fo"X64\DEBUG\\" /Fd"X64\DEBUG\VC141.PDB" /Gd /TP   C:\USERS\ARNAS\DESKTOP\ROBOCATACTION\ROBOCAT\SRC\SCOREBOARDMANAGER.CPP
^C:\USERS\ARNAS\DESKTOP\ROBOCATACTION\ROBOCAT\SRC\ROBOCAT.CPP
/c /I..\DIRECTXTK\INC /IINC /I..\ /Zi /nologo /W4 /WX- /diagnostics:classic /Od /Oi /D WIN32 /D _DEBUG /D DEBUG /D PROFILE /D _WINDOWS /D _WIN32_WINNT=0x0600 /D _UNICODE /D UNICODE /Gm- /EHsc /RTC1 /MDd /GS /fp:fast /Zc:wchar_t /Zc:forScope /Zc:inline /openmp- /Fo"X64\DEBUG\\" /Fd"X64\DEBUG\VC141.PDB" /Gd /TP   C:\USERS\ARNAS\DESKTOP\ROBOCATACTION\ROBOCAT\SRC\ROBOCAT.CPP
^C:\USERS\ARNAS\DESKTOP\ROBOCATACTION\ROBOCAT\SRC\SOCKETADDRESS.CPP
/c /I..\DIRECTXTK\INC /IINC /I..\ /Zi /nologo /W4 /WX- /diagnostics:classic /Od /Oi /D WIN32 /D _DEBUG /D DEBUG /D PROFILE /D _WINDOWS /D _WIN32_WINNT=0x0600 /D _UNICODE /D UNICODE /Gm- /EHsc /RTC1 /MDd /GS /fp:fast /Zc:wchar_t /Zc:forScope /Zc:inline /openmp- /Fo"X64\DEBUG\\" /Fd"X64\DEBUG\VC141.PDB" /Gd /TP   C:\USERS\ARNAS\DESKTOP\ROBOCATACTION\ROBOCAT\SRC\SOCKETADDRESS.CPP
^C:\USERS\ARNAS\DESKTOP\ROBOCATACTION\ROBOCAT\SRC\SOCKETADDRESSFACTORY.CPP
/c /I..\DIRECTXTK\INC /IINC /I..\ /Zi /nologo /W4 /WX- /diagnostics:classic /Od /Oi /D WIN32 /D _DEBUG /D DEBUG /D PROFILE /D _WINDOWS /D _WIN32_WINNT=0x0600 /D _UNICODE /D UNICODE /Gm- /EHsc /RTC1 /MDd /GS /fp:fast /Zc:wchar_t /Zc:forScope /Zc:inline /openmp- /Fo"X64\DEBUG\\" /Fd"X64\DEBUG\VC141.PDB" /Gd /TP   C:\USERS\ARNAS\DESKTOP\ROBOCATACTION\ROBOCAT\SRC\SOCKETADDRESSFACTORY.CPP
^C:\USERS\ARNAS\DESKTOP\ROBOCATACTION\ROBOCAT\SRC\SOCKETUTIL.CPP
/c /I..\DIRECTXTK\INC /IINC /I..\ /Zi /nologo /W4 /WX- /diagnostics:classic /Od /Oi /D WIN32 /D _DEBUG /D DEBUG /D PROFILE /D _WINDOWS /D _WIN32_WINNT=0x0600 /D _UNICODE /D UNICODE /Gm- /EHsc /RTC1 /MDd /GS /fp:fast /Zc:wchar_t /Zc:forScope /Zc:inline /openmp- /Fo"X64\DEBUG\\" /Fd"X64\DEBUG\VC141.PDB" /Gd /TP   C:\USERS\ARNAS\DESKTOP\ROBOCATACTION\ROBOCAT\SRC\SOCKETUTIL.CPP
^C:\USERS\ARNAS\DESKTOP\ROBOCATACTION\ROBOCAT\SRC\STRINGUTILS.CPP
/c /I..\DIRECTXTK\INC /IINC /I..\ /Zi /nologo /W4 /WX- /diagnostics:classic /Od /Oi /D WIN32 /D _DEBUG /D DEBUG /D PROFILE /D _WINDOWS /D _WIN32_WINNT=0x0600 /D _UNICODE /D UNICODE /Gm- /EHsc /RTC1 /MDd /GS /fp:fast /Zc:wchar_t /Zc:forScope /Zc:inline /openmp- /Fo"X64\DEBUG\\" /Fd"X64\DEBUG\VC141.PDB" /Gd /TP   C:\USERS\ARNAS\DESKTOP\ROBOCATACTION\ROBOCAT\SRC\STRINGUTILS.CPP
^C:\USERS\ARNAS\DESKTOP\ROBOCATACTION\ROBOCAT\SRC\TCPSOCKET.CPP
/c /I..\DIRECTXTK\INC /IINC /I..\ /Zi /nologo /W4 /WX- /diagnostics:classic /Od /Oi /D WIN32 /D _DEBUG /D DEBUG /D PROFILE /D _WINDOWS /D _WIN32_WINNT=0x0600 /D _UNICODE /D UNICODE /Gm- /EHsc /RTC1 /MDd /GS /fp:fast /Zc:wchar_t /Zc:forScope /Zc:inline /openmp- /Fo"X64\DEBUG\\" /Fd"X64\DEBUG\VC141.PDB" /Gd /TP   C:\USERS\ARNAS\DESKTOP\ROBOCATACTION\ROBOCAT\SRC\TCPSOCKET.CPP
^C:\USERS\ARNAS\DESKTOP\ROBOCATACTION\ROBOCAT\SRC\TIMING.CPP
/c /I..\DIRECTXTK\INC /IINC /I..\ /Zi /nologo /W4 /WX- /diagnostics:classic /Od /Oi /D WIN32 /D _DEBUG /D DEBUG /D PROFILE /D _WINDOWS /D _WIN32_WINNT=0x0600 /D _UNICODE /D UNICODE /Gm- /EHsc /RTC1 /MDd /GS /fp:fast /Zc:wchar_t /Zc:forScope /Zc:inline /openmp- /Fo"X64\DEBUG\\" /Fd"X64\DEBUG\VC141.PDB" /Gd /TP   C:\USERS\ARNAS\DESKTOP\ROBOCATACTION\ROBOCAT\SRC\TIMING.CPP
^C:\USERS\ARNAS\DESKTOP\ROBOCATACTION\ROBOCAT\SRC\GAMEOBJECT.CPP
/c /I..\DIRECTXTK\INC /IINC /I..\ /Zi /nologo /W4 /WX- /diagnostics:classic /Od /Oi /D WIN32 /D _DEBUG /D DEBUG /D PROFILE /D _WINDOWS /D _WIN32_WINNT=0x0600 /D _UNICODE /D UNICODE /Gm- /EHsc /RTC1 /MDd /GS /fp:fast /Zc:wchar_t /Zc:forScope /Zc:inline /openmp- /Fo"X64\DEBUG\\" /Fd"X64\DEBUG\VC141.PDB" /Gd /TP   C:\USERS\ARNAS\DESKTOP\ROBOCATACTION\ROBOCAT\SRC\GAMEOBJECT.CPP
^C:\USERS\ARNAS\DESKTOP\ROBOCATACTION\ROBOCAT\SRC\MOUSE.CPP
/c /I..\DIRECTXTK\INC /IINC /I..\ /Zi /nologo /W4 /WX- /diagnostics:classic /Od /Oi /D WIN32 /D _DEBUG /D DEBUG /D PROFILE /D _WINDOWS /D _WIN32_WINNT=0x0600 /D _UNICODE /D UNICODE /Gm- /EHsc /RTC1 /MDd /GS /fp:fast /Zc:wchar_t /Zc:forScope /Zc:inline /openmp- /Fo"X64\DEBUG\\" /Fd"X64\DEBUG\VC141.PDB" /Gd /TP   C:\USERS\ARNAS\DESKTOP\ROBOCATACTION\ROBOCAT\SRC\MOUSE.CPP
^C:\USERS\ARNAS\DESKTOP\ROBOCATACTION\ROBOCAT\SRC\ROBOCATPCH.CPP
/c /I..\DIRECTXTK\INC /IINC /I..\ /Zi /nologo /W4 /WX- /diagnostics:classic /Od /Oi /D WIN32 /D _DEBUG /D DEBUG /D PROFILE /D _WINDOWS /D _WIN32_WINNT=0x0600 /D _UNICODE /D UNICODE /Gm- /EHsc /RTC1 /MDd /GS /fp:fast /Zc:wchar_t /Zc:forScope /Zc:inline /openmp- /Fo"X64\DEBUG\\" /Fd"X64\DEBUG\VC141.PDB" /Gd /TP   C:\USERS\ARNAS\DESKTOP\ROBOCATACTION\ROBOCAT\SRC\ROBOCATPCH.CPP
^C:\USERS\ARNAS\DESKTOP\ROBOCATACTION\ROBOCAT\SRC\UDPSOCKET.CPP
/c /I..\DIRECTXTK\INC /IINC /I..\ /Zi /nologo /W4 /WX- /diagnostics:classic /Od /Oi /D WIN32 /D _DEBUG /D DEBUG /D PROFILE /D _WINDOWS /D _WIN32_WINNT=0x0600 /D _UNICODE /D UNICODE /Gm- /EHsc /RTC1 /MDd /GS /fp:fast /Zc:wchar_t /Zc:forScope /Zc:inline /openmp- /Fo"X64\DEBUG\\" /Fd"X64\DEBUG\VC141.PDB" /Gd /TP   C:\USERS\ARNAS\DESKTOP\ROBOCATACTION\ROBOCAT\SRC\UDPSOCKET.CPP
^C:\USERS\ARNAS\DESKTOP\ROBOCATACTION\ROBOCAT\SRC\WORLD.CPP
/c /I..\DIRECTXTK\INC /IINC /I..\ /Zi /nologo /W4 /WX- /diagnostics:classic /Od /Oi /D WIN32 /D _DEBUG /D DEBUG /D PROFILE /D _WINDOWS /D _WIN32_WINNT=0x0600 /D _UNICODE /D UNICODE /Gm- /EHsc /RTC1 /MDd /GS /fp:fast /Zc:wchar_t /Zc:forScope /Zc:inline /openmp- /Fo"X64\DEBUG\\" /Fd"X64\DEBUG\VC141.PDB" /Gd /TP   C:\USERS\ARNAS\DESKTOP\ROBOCATACTION\ROBOCAT\SRC\WORLD.CPP
